{
  "count": 267,
  "next": "https://spb-classif.gate.petersburg.ru/api/v2/datasets/149/versions/latest/data/327/?page=2&per_page=5",
  "previous": null,
  "results": [
    {
      "number": 1,
      "name": "ГБУ \"Санкт-Петербургский НИИ скорой помощи имени И.И. Джанелидзе\"",
      "type": "Клиники HИИ",
      "address": "192242, Санкт-Петербург, ул. Будапештская, д. 3/5",
      "coordinates": [
        59.8743,
        30.3641
      ],
      "district": "Фрунзенский",
      "chief": "Мануковский Вадим Анатольевич",
      "phone": "709-61-57",
      "fax": "774-86-75",
      "mode": null
    },
    {
      "number": 2,
      "name": "ГБУЗ \"Санкт-Петербургский клинический научно-практический центр специализированных видов медицинской помощи (онкологический)\"",
      "type": "Прочие больничные учреждения",
      "address": "197758, Санкт-Петербург, п.Песочный, ул. Ленинградская, д.68а, лит.А",
      "coordinates": [
        60.1203,
        30.1873
      ],
      "district": "Курортный",
      "chief": "Моисеенко Владимир Михайлович",
      "phone": "573-91-91",
      "fax": "573-91-91",
      "mode": null
    },
    {
      "number": 3,
      "name": "СПб ГАУЗ \"Городская поликлиника №40\"",
      "type": "Поликлиники",
      "address": "191025, Санкт-Петербург, пр. Невский, д. 84-86",
      "coordinates": [
        59.9326,
        30.3507
      ],
      "district": "Центральный",
      "chief": "Ченцов Дмитрий Викторович",
      "phone": "244-38-68",
      "fax": "244-38-69",
      "mode": null
    },
    {
      "number": 4,
      "name": "СПб ГАУЗ \"Городская поликлиника №81\"",
      "type": "Хозрасчетные поликлиники, амбулатории",
      "address": "190000, Санкт-Петербург, Казанская ул., д.54, литера А",
      "coordinates": [
        59.9279,
        30.3079
      ],
      "district": "Адмиралтейский",
      "chief": "Иванов Константин Георгиевич",
      "phone": "315-25-10",
      "fax": null,
      "mode": null
    },
    {
      "number": 5,
      "name": "СПб ГАУЗ \"Городская поликлиника №83\"",
      "type": "Хозрасчетные поликлиники, амбулатории",
      "address": "197198, Санкт-Петербург, пр. Большой П.С., д. 10",
      "coordinates": [
        59.9543,
        30.29
      ],
      "district": "Петроградский",
      "chief": "Кузьмин-Крутецкий Михаил Игоревич",
      "phone": "233-67-69",
      "fax": "235-82-89",
      "mode": null
    }
  ]
}
