{
  "count": 53,
  "next": "https://spb-classif.gate.petersburg.ru/api/v2/datasets/122/versions/latest/data/142/?page=2&per_page=10",
  "previous": null,
  "results": [
    {
      "number": 1,
      "name": "АО \"Петербургские аптеки\", Аптека №103",
      "network_pharmacy": "АО \"Петербургские аптеки\"",
      "abbreviated_name": "Аптека №103",
      "address": "189510, Санкт-Петербург, Ораниенбаумский пр., 39-б",
      "coordinates": [
        59.897163,
        29.773995
      ],
      "district": "Петродворцовый",
      "phone": "(812) 422-71-20",
      "mode": "пн-пт 10:00 - 18:00",
      "ogrn": 1097847102561
    },
    {
      "number": 2,
      "name": "АО \"Петербургские аптеки\", Аптека №111",
      "network_pharmacy": "АО \"Петербургские аптеки\"",
      "abbreviated_name": "Аптека №111",
      "address": "196653, Санкт-Петербург, Ленина пр., 19/3 лит.А",
      "coordinates": [
        59.750617,
        30.583854
      ],
      "district": "Колпинский",
      "phone": "(812) 461-33-43",
      "mode": "пн-пт 10:00 - 21:00",
      "ogrn": 1097847102561
    },
    {
      "number": 3,
      "name": "АО \"Петербургские аптеки\", Аптека №121",
      "network_pharmacy": "АО \"Петербургские аптеки\"",
      "abbreviated_name": "Аптека №121",
      "address": "197342, Санкт-Петербург, Ланское шоссе, 8 лит. А",
      "coordinates": [
        59.991084,
        30.304558
      ],
      "district": "Приморский",
      "phone": "(812) 492-50-50",
      "mode": "пн-пт 10:00 - 19:00",
      "ogrn": 1097847102561
    },
    {
      "number": 4,
      "name": "АО \"Петербургские аптеки\", Аптека №139",
      "network_pharmacy": "АО \"Петербургские аптеки\"",
      "abbreviated_name": "Аптека №139",
      "address": "197183, Санкт-Петербург, Школьная ул., 64 лит. А",
      "coordinates": [
        59.986974,
        30.263784
      ],
      "district": "Приморский",
      "phone": "(812) 430-40-88",
      "mode": "пн-пт 10:00 - 18:00",
      "ogrn": 1097847102561
    },
    {
      "number": 5,
      "name": "АО \"Петербургские аптеки\", Аптека №142",
      "network_pharmacy": "АО \"Петербургские аптеки\"",
      "abbreviated_name": "Аптека №142",
      "address": "194064, Санкт-Петербург, Тихорецкий пр., 20 лит. Д",
      "coordinates": [
        60.016397,
        30.367027
      ],
      "district": "Выборгский",
      "phone": "(812) 552-74-25",
      "mode": "пн-пт 10:00 - 19:00",
      "ogrn": 1097847102561
    },
    {
      "number": 6,
      "name": "АО \"Петербургские аптеки\", Аптека №145",
      "network_pharmacy": "АО \"Петербургские аптеки\"",
      "abbreviated_name": "Аптека №145",
      "address": "196244, Санкт-Петербург, Типанова ул., 29 лит. А",
      "coordinates": [
        59.854132,
        30.353386
      ],
      "district": "Московский",
      "phone": "(812) 783-03-97",
      "mode": "пн-пт 10:00 - 21:00",
      "ogrn": 1097847102561
    },
    {
      "number": 7,
      "name": "АО \"Петербургские аптеки\", Аптека №148",
      "network_pharmacy": "АО \"Петербургские аптеки\"",
      "abbreviated_name": "Аптека №148",
      "address": "194021, Санкт-Петербург, М.Тореза пр., 24 лит. А",
      "coordinates": [
        60.001707,
        30.359176
      ],
      "district": "Выборгский",
      "phone": "(812) 247-88-48",
      "mode": "пн-пт 10:00 - 21:00",
      "ogrn": 1097847102561
    },
    {
      "number": 8,
      "name": "АО \"Петербургские аптеки\", Аптека №151",
      "network_pharmacy": "АО \"Петербургские аптеки\"",
      "abbreviated_name": "Аптека №151",
      "address": "195220, Санкт-Петербург, Гражданский пр., 27 к 1 лит. А",
      "coordinates": [
        60.006705,
        30.392494
      ],
      "district": "Калининский",
      "phone": "(812) 535-00-01",
      "mode": "пн-пт 10:00 - 19:00",
      "ogrn": 1097847102561
    },
    {
      "number": 9,
      "name": "АО \"Петербургские аптеки\", Аптека №154",
      "network_pharmacy": "АО \"Петербургские аптеки\"",
      "abbreviated_name": "Аптека №154",
      "address": "195256, Санкт-Петербург, Науки пр., 41 лит. А",
      "coordinates": [
        60.008846,
        30.411862
      ],
      "district": "Калининский",
      "phone": "(812) 535-18-90",
      "mode": "пн-пт 10:00 - 18:00",
      "ogrn": 1097847102561
    },
    {
      "number": 10,
      "name": "АО \"Петербургские аптеки\", Аптека №157",
      "network_pharmacy": "АО \"Петербургские аптеки\"",
      "abbreviated_name": "Аптека №157",
      "address": "196600, Санкт-Петербург, Петербургское шоссе, 13/1 лит.А",
      "coordinates": [
        59.736301,
        30.395981
      ],
      "district": "Пушкинский",
      "phone": "(812) 465-81-83",
      "mode": "пн-пт 10:00 - 21:00",
      "ogrn": 1097847102561
    }
  ]
}
