{
  "count": 52,
  "next": "https://spb-classif.gate.petersburg.ru/api/v2/datasets/233/versions/latest/data/342/?page=2&per_page=10",
  "previous": null,
  "results": [
    {
      "number": 1,
      "name": "Санкт-Петербургское государственное бюджетное учреждение дополнительного образования \"Санкт-Петербургская городская художественная школа им. Г.Н.Антонова\"",
      "abbreviated_name": "СПб ГБУ ДО «Санкт-Петербургская городская детская художественная школа имени Г.Н. Антонова»",
      "address": "190068, г.Санкт-Петербург, проспект Римского-Корсакова, дом 18/13, литер А",
      "legal_address": "190068, г.Санкт-Петербург, проспект Римского-Корсакова, дом 18/13, литера А, помещение №1-Н",
      "district": "Адмиралтейский",
      "nearest_subway_station": "Сенная Площадь",
      "chief": "Борисова Инна Олеговна",
      "phone": "246-30-43",
      "fax": "246-30-43",
      "email": "spbghsh@yandex.ru",
      "mo": "МО Коломна",
      "inn": 7825441087,
      "ogrn": 1047839021372,
      "note": "spb-artschool.ru"
    },
    {
      "number": 2,
      "name": "Санкт-Петербургское государственное бюджетное образовательное учреждение дополнительного образования \"Санкт - Петербургская детская художественная школа №12\"",
      "abbreviated_name": "СПб ГБУ ДО «Санкт-Петербургская детская художественная школа № 12»",
      "address": "195257, г.Санкт-Петербург, Северный проспект, дом 69/98, литер А",
      "legal_address": "195257, г.Санкт-Петербург, Северный проспект, дом 69/98, литера А,",
      "district": "Калининский",
      "nearest_subway_station": "Академическая",
      "chief": "Роков Иосиф Антонович",
      "phone": "555-73-61",
      "fax": "556-37-93",
      "email": "dhsh@yandex.ru",
      "mo": "МО Академическое",
      "inn": 7804151387,
      "ogrn": 1047806031900,
      "note": "http://дхш12.рф"
    },
    {
      "number": 3,
      "name": "Санкт-Петербургское государственное бюджетное профессиональное образовательное учреждение \"Санкт-Петербургское художественное училище имени Н.К.Рериха\"",
      "abbreviated_name": "СПб ГБПОУ \"Санкт-Петербургское художественное училище им. Н.К.Рериха\"",
      "address": "195257, г.Санкт-Петербург, Гражданский проспект, дом 88, корпус 2, литер А",
      "legal_address": "195257, г.Санкт-Петербург, Гражданский проспект, дом 88, корпус 2, литера А",
      "district": "Калининский",
      "nearest_subway_station": "Академическая",
      "chief": "Иванов Станислав Дмитриевич",
      "phone": "555-84-44",
      "fax": "550-86-83",
      "email": "rerihnk@mail.ru",
      "mo": "МО Академическое",
      "inn": 7804080601,
      "ogrn": 1037808021240,
      "note": "rerihspbhu.ru"
    },
    {
      "number": 4,
      "name": "Санкт-Петербургское государственное бюджетное учреждение дополнительного образования \"Санкт-Петербургская детская художественная школа \"Александрино\"",
      "abbreviated_name": "СПб ГБУ ДО \"Санкт-Петербургская детская художественная школа \"Александрино\"",
      "address": "198262, г.Санкт-Петербург, проспект Стачек, дом 226, литер А",
      "legal_address": "198262, г.Санкт-Петербург, проспект Стачек, дом 226, литер А",
      "district": "Кировский",
      "nearest_subway_station": "Ленинский проспект",
      "chief": "Авикайнен Татьяна Эдуардовна",
      "phone": "246-29-39, 246-29-40, 246-29-38",
      "fax": "246-29-39",
      "email": "aleksandrino.spb@mail.ru",
      "mo": "МО Дачное",
      "inn": 7805186872,
      "ogrn": 1037811043225,
      "note": "alexandrino.ru"
    },
    {
      "number": 5,
      "name": "Санкт-Петербургское государственное бюджетное учреждение дополнительного образования «Санкт-Петербургская детская художественная школа № 13»",
      "abbreviated_name": "СПб ГБУ ДО «Санкт-Петербургская детская художественная школа № 13»",
      "address": "196105, г.Санкт-Петербург, Свеаборгская улица, дом 23, литер А, помещение №2-Н",
      "legal_address": "196105, Санкт-Петербург, ул. Свеаборгская д. 23, лит. А, часть помещения 2Н",
      "district": "Московский",
      "nearest_subway_station": "Чернышевская",
      "chief": "Южакова Лариса Александровна",
      "phone": "241-34-94",
      "fax": "241-34-94",
      "email": "art-school13@yandex.ru",
      "mo": "МО Московская застава",
      "inn": 7810213225,
      "ogrn": 1047815029107,
      "note": "art-school13.ru"
    },
    {
      "number": 6,
      "name": "Государственное бюджетное  учреждение дополнительного образования \"Санкт-Петербургская детская художественная школа им. Б.М. Кустодиева\"",
      "abbreviated_name": "ГБУ ДО \"Санкт-Петербургская детская художественная школа имени Б.М. Кустодиева\"",
      "address": "197022, г.Санкт-Петербург, Каменный остров, Боковая аллея, дом 1, литер А",
      "legal_address": "197022, г.Санкт-Петербург, Каменный остров, Боковая аллея, дом 1, литера А,",
      "district": "Петроградский",
      "nearest_subway_station": "Черная речка, Петроградская",
      "chief": "Керт Александр Борисович",
      "phone": "234-13-95",
      "fax": "234-13-95",
      "email": "artschool73@narod.ru",
      "mo": "МО Чкаловское",
      "inn": 7813138897,
      "ogrn": 1037828010538,
      "note": "http://kustodiev-school.ru/"
    },
    {
      "number": 7,
      "name": "Санкт-Петербургское государственное бюджетное учреждение дополнительного образования \"Санкт-Петербургская детская художественная школа № 17\"",
      "abbreviated_name": "СПб ГБУ ДО \"СПб ДХШ №17\"",
      "address": "197183, г.Санкт-Петербург, Приморский проспект, дом 87, литер А",
      "legal_address": "197183, г. Санкт-Петербург, Приморский проспект, дом 87, литера А",
      "district": "Приморский",
      "nearest_subway_station": "Старая Деревня",
      "chief": "Терехов Николай Иванович",
      "phone": "430-15-20",
      "fax": "430-32-64",
      "email": "dhsh17@yandex.ru",
      "mo": "МО № 66",
      "inn": 7814115042,
      "ogrn": 1037832017343,
      "note": "dhsh17.ru"
    },
    {
      "number": 8,
      "name": "Санкт-Петербургское государственное бюджетное учреждение дополнительного образования «Санкт-Петербургская детская художественная школа № 6»",
      "abbreviated_name": "СПб ГБУ ДО «Санкт-Петербургская детская художественная школа № 6»",
      "address": "193024, г.Санкт-Петербург, Невский проспект, дом 146, литер А",
      "legal_address": "191024, г.Санкт-Петербург, Невский проспект, дом 146, литера А, помещение №2-Н, 19-Н",
      "district": "Фрунзенский",
      "nearest_subway_station": "Площадь Восстания",
      "chief": "Александрова Алла Викторовна",
      "phone": "274-07-42",
      "fax": "274-05-69",
      "email": "dhsh6@rambler.ru",
      "mo": "МО Смольнинское",
      "inn": 7825442563,
      "ogrn": 1057810316035,
      "note": "dhsh6.ru"
    },
    {
      "number": 9,
      "name": "Санкт-Петербургское государственное бюджетное учреждение дополнительного образования\"Санкт-Петербургская детская художественная школа № 16\"",
      "abbreviated_name": "СПб ГБУ ДО \"ДХШ № 16\"",
      "address": "192007, г.Санкт-Петербург, набережная Обводного канала, дом 46, корпус 2, литер А",
      "legal_address": "192007, г.Санкт-Петербург, набережная Обводного канала, дом 46, корпус 2, литер А",
      "district": "Фрунзенский",
      "nearest_subway_station": "Обводный канал",
      "chief": "Гамбарян Каринэ Юрьевна",
      "phone": "766-36-26",
      "fax": "766-34-23",
      "email": "art-schola16@yandex.ru",
      "mo": "МО № 71",
      "inn": 7816172328,
      "ogrn": 1037835062550,
      "note": "http://art-schkola16.ru/"
    },
    {
      "number": 10,
      "name": "Санкт-Петербургское государственное бюджетное учреждение дополнительного образования \"Санкт-Петербургская Детская художественная школа № 2\"",
      "abbreviated_name": "СПб ГБУ ДО «Санкт-Петербургская детская художественная школа № 2»",
      "address": "191014, г.Санкт-Петербург, улица Некрасова, дом 10-12, литер А",
      "legal_address": "191014, г.Санкт-Петербург, улица Некрасова, дом 10, литера А,помещения 12-Н, 15-Н",
      "district": "Центральный",
      "nearest_subway_station": "Чернышевская",
      "chief": "Каракозова Екатерина Николаевна",
      "phone": "272-55-67",
      "fax": "272-55-67",
      "email": "hudozhka2@yandex.ru",
      "mo": "МО Литейный",
      "inn": 7825131328,
      "ogrn": 1037843137595,
      "note": "http://www.hudozhka2.ru/"
    }
  ]
}
