{
  "count": 844,
  "next": "https://spb-classif.gate.petersburg.ru/api/v2/datasets/284/versions/latest/data/567/?page=2&per_page=10",
  "previous": null,
  "results": [
    {
      "number": 1,
      "name": "Государственное бюджетное общеобразовательное учреждение школа-интернат № 2 Адмиралтейского  района Санкт-Петербурга",
      "address": "190020, Россия, Санкт-Петербург,  Старо-Петергофский проспект, дом 33, лит.Б",
      "date_registration": "2013-05-27",
      "certificate": "78А01 № 0000704",
      "application_certificate": "78А01 № 0000688",
      "validity": "бессрочно",
      "accredited_program": "Начальное общее образование; Основное общее образование",
      "renewal": "6134-р, 30.12.2015",
      "suspension": null,
      "ogrn": 1027810346739,
      "inn": 7826048672
    },
    {
      "number": 2,
      "name": "Государственное бюджетное общебразовательное учреждение Вторая Санкт-Петербургская Гимназия",
      "address": "190000, Санкт-Петербург, ул.Казанская, дом 27, литер \"А\"",
      "date_registration": "2014-03-07",
      "certificate": "78А01 № 0000551",
      "application_certificate": "78А01 № 0000558",
      "validity": "бессрочно",
      "accredited_program": "Начальное общее - общеобразовательная; Основное общее - общеобразовательная; Среднее общее - общеобразовательная",
      "renewal": null,
      "suspension": null,
      "ogrn": 1027810346387,
      "inn": 7812017321
    },
    {
      "number": 3,
      "name": "Государственное бюджетное общеобразовательное учреждение школа № 5 Адмиралтейского  района Санкт-Петербурга",
      "address": "190013, Санкт-Петербург, Батайский пер. д.6-8 лит А",
      "date_registration": "2013-05-27",
      "certificate": "78А01 № 0000521",
      "application_certificate": "78А01 № 0000604",
      "validity": "бессрочно",
      "accredited_program": "Начальное общее образование; Основное общее образование",
      "renewal": "5245-р, 02.11.2015",
      "suspension": null,
      "ogrn": 1027810298988,
      "inn": 7826049281
    },
    {
      "number": 4,
      "name": "Государственное бюджетное общеобразовательное учреждение гимназия № 190 Центрального района Санкт-Петербурга",
      "address": "191028, Санкт-Петербург, набережная реки Фонтанки, дом 22, литер А",
      "date_registration": "2011-03-14",
      "certificate": "78А01 № 0000241",
      "application_certificate": "78А01 № 0000297",
      "validity": "бессрочно",
      "accredited_program": "Основное общее образование; Среднее общее образование",
      "renewal": "395-р, 14.02.2012; 2034-р, 27.04.2015",
      "suspension": null,
      "ogrn": 1027809252130,
      "inn": 7825129801
    },
    {
      "number": 5,
      "name": "Государственное бюджетное общеобразовательное учреждение средняя общеобразовательная школа № 225 Адмиралтейского  района Санкт-Петербурга",
      "address": "190000, Санкт-Петербург, Адмиралтейская набережная, д. 4, лит. А",
      "date_registration": "2013-01-16",
      "certificate": "78А01 № 0000219",
      "application_certificate": "78А01 № 0000272",
      "validity": "бессрочно",
      "accredited_program": "Начальное общее образование; Основное общее образование; Среднее общее образование",
      "renewal": "1805-р, 17.04.2015",
      "suspension": null,
      "ogrn": 1027810349368,
      "inn": 7826717877
    },
    {
      "number": 6,
      "name": "Государственное бюджетное общеобразовательное учреждение средняя общеобразовательная школа № 229 Адмиралтейского района Санкт-Петербурга",
      "address": "190068, Санкт-Петербург, переулок Бойцова, дом 3, литер А",
      "date_registration": "2015-01-23",
      "certificate": "78А01 № 0000032",
      "application_certificate": "78А01 № 0000080",
      "validity": "бессрочно",
      "accredited_program": "Начальное общее образование; Основное общее образование; Среднее общее образование",
      "renewal": null,
      "suspension": null,
      "ogrn": 1027810356221,
      "inn": 7826717274
    },
    {
      "number": 7,
      "name": "Государственное бюджетное общеобразовательное учреждение средняя общеобразовательная школа № 232 Адмиралтейского  района Санкт-Петербурга",
      "address": "190068, Санкт-Петербург, набережная Крюкова канала, д.15, лит.А, пом. 1Н, 2Н, 3Н",
      "date_registration": "2013-01-16",
      "certificate": "78А01 № 0000218",
      "application_certificate": "78А01 № 0000271",
      "validity": "бессрочно",
      "accredited_program": "Начальное общее образование; Основное общее образование; Среднее общее образование",
      "renewal": "1806-р, 17.04.2015",
      "suspension": null,
      "ogrn": 1027810291189,
      "inn": 7826717884
    },
    {
      "number": 8,
      "name": "Государственное бюджетное общеобразовательное учреждение средняя общеобразовательная школа № 234 Адмиралтейского  района Санкт-Петербурга",
      "address": "190121, Санкт-Петербург, Канонерская улица , д.33, лит.А",
      "date_registration": "2013-01-16",
      "certificate": "78А01 № 0000323",
      "application_certificate": "78А01 № 0000394",
      "validity": "бессрочно",
      "accredited_program": "Начальное общее образование; Основное общее образование; Среднее общее образование",
      "renewal": "3136-р, 29.09.2015",
      "suspension": null,
      "ogrn": 1027810334353,
      "inn": 7826717901
    },
    {
      "number": 9,
      "name": "Государственное бюджетное общеобразовательное учреждение средняя общеобразовательная школа № 235 с углубленным изучением отдельных учебных предметов им. Д.Д.Шостаковича Адмиралтейского  района Санкт-Петербурга",
      "address": "190121, город Санкт-Петербург, набережная реки Пряжки, дом 4-6, лит. А",
      "date_registration": "2015-01-23",
      "certificate": "78А01 № 0001006",
      "application_certificate": "78А01 № 0001034",
      "validity": "бессрочно",
      "accredited_program": "Начальное общее образование; Основное общее образование; Среднее общее образование",
      "renewal": "2516-р, 25.12.2020",
      "suspension": null,
      "ogrn": 1037851004091,
      "inn": 7826717612
    },
    {
      "number": 10,
      "name": "Государственное бюджетное общеобразовательное учреждение средняя общеобразовательная школа № 238 с углубленным изучением английского языка Адмиралтейского района Санкт-Петербурга",
      "address": "190000, Санкт-Петербург, Галерная улица, д.36-38, лит. А",
      "date_registration": "2013-01-16",
      "certificate": "78А01 № 0000532",
      "application_certificate": "78А01 № 0000612",
      "validity": "бессрочно",
      "accredited_program": "Начальное общее образование; Основное общее образование; Среднее общее образование",
      "renewal": "1809-р, 17.04.2015",
      "suspension": null,
      "ogrn": 1027810344100,
      "inn": 7826717620
    }
  ]
}
