{
  "count": 4549,
  "next": "https://spb-classif.gate.petersburg.ru/api/v2/datasets/176/versions/latest/data/426/?page=2&per_page=10",
  "previous": null,
  "results": [
    {
      "number": 1,
      "type": "Стадион",
      "district_city": "Адмиралтейский",
      "address": "Лифляндская ул., дом 5, корп. 3, лит. А",
      "name": "ГБОУ ДОД СДЮСШОР № 1 Адмиралтейского района",
      "built-up_area": "19480"
    },
    {
      "number": 2,
      "type": "Футбольная площадка",
      "district_city": "Адмиралтейский",
      "address": "Большой Казачий пер., уч. 2 (юго-восточнее дома 10, лит. А)",
      "name": "ГБУ \"Центр физической культуры, спорта и здоровья Адмиралтейского района\"",
      "built-up_area": "695"
    },
    {
      "number": 3,
      "type": "Спортивная площадка",
      "district_city": "Адмиралтейский",
      "address": "Бумажная ул., уч. 3 (южнее дома 156, лит. З по наб. Обводного канала)",
      "name": "ГБУ \"Центр физической культуры, спорта и здоровья Адмиралтейского района\"",
      "built-up_area": "878"
    },
    {
      "number": 4,
      "type": "Спортивная площадка",
      "district_city": "Адмиралтейский",
      "address": "Гороховая ул., уч. 7 (восточнее дома 41, лит. Е)",
      "name": "ГБУ \"Центр физической культуры, спорта и здоровья Адмиралтейского района\"",
      "built-up_area": "456"
    },
    {
      "number": 5,
      "type": "Спортивная площадка",
      "district_city": "Адмиралтейский",
      "address": "Измайловский пр., уч. 11 (западнее дома 11, лит. А)",
      "name": "ГБУ \"Центр физической культуры, спорта и здоровья Адмиралтейского района\"",
      "built-up_area": "310"
    },
    {
      "number": 6,
      "type": "Спортивная площадка",
      "district_city": "Адмиралтейский",
      "address": "Курляндская ул., уч. 5 (юго-западнее дома 16-18, лит. А)",
      "name": "ГБУ \"Центр физической культуры, спорта и здоровья Адмиралтейского района\"",
      "built-up_area": "490"
    },
    {
      "number": 7,
      "type": "Хоккейная площадка",
      "district_city": "Адмиралтейский",
      "address": "Лермонтовский пр., уч. 6 (западнее дома 49, лит. А)",
      "name": "ГБУ \"Центр физической культуры, спорта и здоровья Адмиралтейского района\"",
      "built-up_area": "652"
    },
    {
      "number": 8,
      "type": "Футбольная площадка",
      "district_city": "Адмиралтейский",
      "address": "Лоцманская ул., уч. 1 (северо-западнее дома 29, лит. Г по Витебской ул.)",
      "name": "ГБУ \"Центр физической культуры, спорта и здоровья Адмиралтейского района\"",
      "built-up_area": "326"
    },
    {
      "number": 9,
      "type": "Спортивная площадка",
      "district_city": "Адмиралтейский",
      "address": "Можайская ул., дом 44-48, лит. А",
      "name": "ГБУ \"Центр физической культуры, спорта и здоровья Адмиралтейского района\"",
      "built-up_area": "1557"
    },
    {
      "number": 10,
      "type": "Футбольная площадка",
      "district_city": "Адмиралтейский",
      "address": "Московский пр., уч. 31 (южнее дома 79, лит. Б)",
      "name": "ГБУ \"Центр физической культуры, спорта и здоровья Адмиралтейского района\"",
      "built-up_area": "1089"
    }
  ]
}
