{
  "count": 943,
  "next": "https://spb-classif.gate.petersburg.ru/api/v2/datasets/132/versions/latest/data/153/?page=2&per_page=10",
  "previous": null,
  "results": [
    {
      "oid": 11917,
      "name": "СПб ГБ ПОУ \"РКТК\", Учебная гостиница \"Лицейская\"",
      "class": "гостиница",
      "hotel_rooms": 142,
      "hotels_bads": 282,
      "address_manual": "Санкт-Петербург,  пр.Дальневосточный, 51",
      "district": "Невский",
      "phone": "+7(812)4467475;",
      "fax": "нет",
      "www": "http://rktk.org/rktk_new/",
      "email": "hotel51@mail.ru",
      "description": "Гостиница «Лицейская» предлагает размещение в номерах следующих категорий:\r\n\r\n1 категория (номера с удобствами в номере);\r\n\r\n2 категория (номера с удобствами на 2 комнаты);\r\n\r\n5 категория (номера с удобствами на этаже, размещение не более 4-х человек в комнате).\r\n\r\nНа территории колледжа действует столовая (170 посадочных мест, от 200 рублей на выбор из предложенного меню завтрак/обед/ужин), актовый зал, спортивный зал, открытые спортивные площадки.\r\n\r\n В непосредственной близости находятся исторические памятники: «Журавли», «Невская застава».",
      "services": "• телевидение\r\n • холодильник",
      "coord": [
        59.888284,
        30.463021
      ]
    },
    {
      "oid": 11919,
      "name": "ДОМИК У ПРИЧАЛА",
      "class": "гостиница",
      "hotel_rooms": 33,
      "hotels_bads": 66,
      "address_manual": "Санкт-Петербург, Ломоносов, наб. Сидоровского канала, 3-а;",
      "district": "Петродворцовый",
      "phone": "+7(812)4220707;",
      "fax": "+7(812)4226441;",
      "www": "http://www.pierhouse.ru/",
      "email": "info@pierhouse.ru; domik0707@mail.ru",
      "description": "Отель расположен на южном побережье Финского залива в одном из красивейших мест Ленинградской области - Ораниенбауме. Территория отеля благоустроена. Около отеля есть удобная парковка. Недалеко от отеля находится пляж.\r\n ♦ Номера в отеле комфортные, отделка выдержана в уютном домашнем стиле, в наличие детская кроватка и  стульчик, возможно использование дополнительных мест (диванов).\r\n♦ На всей территории  отеля и ресторана WI-FI бесплатно.\r\n♦ На первом этаже отеля находится ресторан, кафе и банкетный зал, который идеально подходит для проведения свадеб, банкетов, корпоративных праздников. \r\n♦ В отеле есть финская сауна с бассейном и зоной отдыха.\r\n♦ Парковка для гостей отеля бесплатная\r\n♦ Расположение на берегу Финского залива привлекательно для любителей морских путешествий на катерах и яхтах с возможностью их стоянки.\r\n♦ Если Вы любите посидеть на закате с удочкой, или просто спокойно отдохнуть у воды, то «Домик у причала» — это правильный выбор.",
      "services": "• Wi Fi\r\n• вызов такси\r\n• хранение вещей после расчетного часа до отъезда\r\n• пользование телефоном (по городу) и факсом\r\n• утюг, аптечка\r\n• сейф (на стойке у администратора)\r\n• парковкаЗа дополнительную плату :\r\n\r\n• заказ экскурсионной программы по Санкт-Петербургу и пригородам \r\n• регистрация иностранных граждан\r\n• услуги прачечной\r\n• прокат инвентаря для отдыха (столы и стулья для пикника, мангал, удочки)",
      "coord": [
        59.920853,
        29.777759
      ]
    },
    {
      "oid": 11921,
      "name": "БАЛТИЯ",
      "class": "гостиница",
      "hotel_rooms": 90,
      "hotels_bads": 174,
      "address_manual": "Санкт-Петербург, ул. Смолячкова, 5, корп. 1",
      "district": "Выборгский",
      "phone": "+7(812)2920440;",
      "fax": "+7(812)2920442;",
      "www": "http://www.baltiyahotel.ru/",
      "email": "info@baltiyahotel.ru",
      "description": "Добро пожаловать в отель «Балтия» - уютное пространство для работы и отдыха, которое на время пребывания в Санкт-Петербурге станет Вам домом!\r\n\r\nБАЛТИЯ - это современный отель в Выборгском районе Санкт-Петербурга на берегу Большой Невки, недалеко от центра города и основных достопримечательностей.\r\n\r\nБАЛТИЯ приняла первых гостей в марте 2012 года, и с тех пор остается для путешественников тихой гаванью в суете мегаполиса.",
      "services": "• завтрак\r\n • Wi-Fi\r\n • спутниковое телевидение\r\n • система кондиционирования\r\n•бар/ресторан\r\n•1 конференц-зал на 60 человек\r\n• 1 переговорная комната на 10 человек\r\n•служба консьержей\r\n•прачечная и химчистка\r\n•гладильные комнаты\r\n•бесплатный Wi-Fi\r\n•бесплатная аренда ноутбука на 2 часа\r\n•банкомат\r\n• заказ такси и автобусов\r\n•камера хранения\r\n•сейфовые ячейки\r\n•сувенирный магазин\r\n•круглосуточная охрана",
      "coord": [
        59.970186,
        30.33926
      ]
    },
    {
      "oid": 11923,
      "name": "М-ОТЕЛЬ",
      "class": "гостиница",
      "hotel_rooms": 61,
      "hotels_bads": 115,
      "address_manual": "Санкт-Петербург, ул. Садовая, 22/2",
      "district": "Центральный",
      "phone": "+7(812)4488383;",
      "fax": "нет",
      "www": "http://mhotelspb.ru/",
      "email": "sales@mhotelspb.ru",
      "description": "Гостиница «М-отель» расположена в отдельно стоящем здании в самом центре Санкт-Петербурга в тихом уютном дворе. Станция метро «Гостиный двор» и центральная улица Невский проспект — всего в 300 метрах. Такие знаменитые достопримечательности как Эрмитаж, Русский музей, Храм Спаса-на-Крови, Исаакиевский и Казанский соборы, Александринский театр, а также реки и каналы находятся в пешей доступности от отеля",
      "services": "завтрак\r\n сейф\r\n спутниковое телевидение\r\n  система климат-контроля\r\nбар /рестораны\r\nбизнесцентр\r\nпрачечная и химчистка\r\nгладильная комната\r\nбесплатный Wi-Fi\r\nохраняемая автостоянка\r\nпредоставление автотранспорта с водителем\r\nвызов такси и автобусов\r\nкамеры хранения круглосуточная охрана",
      "coord": [
        59.932919,
        30.334239
      ]
    },
    {
      "oid": 11924,
      "name": "ИБИС САНКТ-ПЕТЕРБУРГ ЦЕНТР",
      "class": "гостиница",
      "hotel_rooms": 221,
      "hotels_bads": 442,
      "address_manual": "191040, Санкт-Петербург, Лиговский пр, дом 54",
      "district": "Центральный",
      "phone": "+7(812)6220100;",
      "fax": "+7(812)6220101;",
      "www": "www.ibis.com/6157",
      "email": "h6157@accor.com",
      "description": "Этот отель расположен в самом центре Санкт-Петербурга, всего в 5 минутах ходьбы от магазинов по Невскому проспекту и всего в 500 метрах от Московского железнодорожного вокзала. В номерах можно воспользоваться бесплатным Wi-Fi.\r\n\r\nВ отеле Ibis St. Petersburg Centre предлагаются номера с рабочим столом, оснащенные кондиционером и телевизором со спутниковым телевидением. В собственной ванной комнате предоставляется фен и бесплатные туалетно-косметические принадлежности.\r\n\r\nВ ресторане Ibis Kitchen подаются блюда средиземноморской кухни, а в лаундж-баре Ibis можно заказать прохладительные напитки и легкие закуски.",
      "services": "•Круглосуточный бар\r\n• Завтрак в Ресторане\r\n•5 конференц-залов от 20 до 100 человек\r\n•Консьерж-Услуги\r\n•Сувенирный магазин\r\n•Услуги Прачечной и химчистки \r\n•Гладильная комната\r\n•Охраняемый подземный гараж\r\n•Банкоматы\r\n•Авиа и ж/д билеты\r\n•Предоставление автотранспорта с водителем\r\n•Вызов такси и автобусов\r\n•Камера хранения\r\n•Доставка цветов\r\n•Круглосуточная охрана\r\n• Wi-Fi\r\n • спутниковое телевидение\r\n • система климат-контроля",
      "coord": [
        59.911317,
        30.347911
      ]
    },
    {
      "oid": 11926,
      "name": "AZIMUT Отель Санкт-Петербург",
      "class": "отель",
      "hotel_rooms": 583,
      "hotels_bads": 1124,
      "address_manual": "190103, Санкт-Петербург, Лермонтовский пр., 43/1",
      "district": "Адмиралтейский",
      "phone": "8 (812) 714-26-40",
      "fax": "+ 7 (812) 740 26 88",
      "www": "http://azimuthotels.com/",
      "email": "spb@azimuthotels.com;reservation@azimuthotels.com",
      "description": "Отель «AZIMUT Санкт-Петербург» расположен на набережной реки Фонтанки, всего в 2 станциях метро от центра города. Он занимает самое высокое здание в историческом районе Санкт-Петербурга. К услугам гостей бар с панорамным видом, ресторан и бесплатный Wi-Fi.\r\n\r\nВсе светлые номера отеля «AZIMUT Санкт-Петербург» оснащены телевизором. В числе удобств рабочий стол и собственная ванная комната с душем.",
      "services": "парковка, Экскурсионное бюро, Услуги по продаже билетов, Банкомат на территории отеля, Прачечная, Услуги по глажению одежды, Конференц-зал/Банкетный зал, Факс/Ксерокопирование, Сувенирный магазин, Люкс для новобрачных.завтрак, интернет",
      "coord": [
        59.914953,
        30.29518
      ]
    },
    {
      "oid": 11927,
      "name": "Центр молодежи «Алиот",
      "class": "гостиница",
      "hotel_rooms": 72,
      "hotels_bads": 144,
      "address_manual": "Санкт-Петербург, ул.Возрождения, 4",
      "district": "Кировский",
      "phone": "8 (812) 570-80-66",
      "fax": "нет",
      "www": "http://www.aliot-spb.ru",
      "email": "bron@aliot-spb.ru",
      "description": "В 1994 в Кировском районе Санкт-Петербурга открылась гостиница эконом класса \"Алиот\" . Это респектабельный отель, где удачно сочетаются деловой ритм и уютная атмосфера. Архитектурные решения и отделочные работы выполнены австрийскими и итальянскими специалистами. Номера декорированы картинами известных петербургских художников. Из окон гостиницы эконом класса \"Алиот\" открывается удивительная панорама северной столицы: золотые купола Исаакиевского собора, синева Финского залива, мачты кораблей и стрелы кранов в Морском порту.",
      "services": "• завтрак\r\n • Wi-Fi\r\n • телевизор\r\n • холодильник   • сейф                                 •бары/рестораны\r\n•2 конференц-зала на 100 и 18 человек\r\n•бизнесцентр\r\n•служба горничных, кастелянши\r\n•прачечная и химчистка\r\n•охраняемая автостоянка\r\n•банкомат\r\n•вызов такси и автобусов\r\n•камера хранения\r\n•доставка цветов\r\n•кейтеринг\r\n•круглосуточная охрана",
      "coord": [
        59.882939,
        30.267907
      ]
    },
    {
      "oid": 11928,
      "name": "АНАБЕЛЬ Гостевые комнаты",
      "class": "малое средство размещения",
      "hotel_rooms": 3,
      "hotels_bads": 9,
      "address_manual": "Санкт-Петербург, Невский пр., 88, лит Б, кв 147",
      "district": "Центральный",
      "phone": "+7(812)4002211;",
      "fax": "нет",
      "www": "http://anabel.ru/",
      "email": "info@anabel.ru",
      "description": "Наши гостевые комнаты расположены по адресу Невский проспект, дом 88, в 3-х минутах ходьбы от станции метро Маяковская, в 10 минутах от Московского вокзала. Все комнаты имеют удобства, оборудованы кондиционерами и электронными замками. В холлах ведётся видеонаблюдение.",
      "services": "Доставка еды и напитков в номер, Прокат автомобилей, Трансфер (за дополнительную плату), Круглосуточная стойка регистрации, Экскурсионное бюро, Услуги по продаже билетов, Камера хранения багажа, Банкомат на территории отеля, Услуги консьержа, Химчистка, Услуги по глажению одежды, Чистка обуви, Факс/Ксерокопирование, Люкс для новобрачных\r\nзавтрак, чай, кофе, такси, карты",
      "coord": [
        59.932518,
        30.35172
      ]
    },
    {
      "oid": 11929,
      "name": "АНДЕРСЕН отель",
      "class": "отель",
      "hotel_rooms": 140,
      "hotels_bads": 280,
      "address_manual": "197022, Санкт-Петербург, ул. Чапыгина, 4-а",
      "district": "Петроградский",
      "phone": "+7(812)7405140;",
      "fax": null,
      "www": "http://www.andersenhotel.ru/",
      "email": "karataeva@andersenhotel.ru",
      "description": "Территориальное расположение отеля (10 минут пешком\r\nдо м. «Петроградская») позволяет быть в непосредственной близости\r\nот исторических и архитектурных памятников Санкт-Петербурга, а также быстро добраться\r\nдо Невского проспекта.",
      "services": "Доставка еды и напитков в номер, Круглосуточная стойка регистрации, Ускоренная регистрация заезда/отъезда, Камера хранения багажа, Банкомат на территории отеля, Прачечная, Услуги по глажению одежды, Чистка обуви, Конференц-зал/Банкетный зал, Факс/Ксерокопирование, Сувенирный магазин, Люкс для новобрачных\r\n • завтрак\r\n • Wi-Fi\r\n • сейф\r\n • парковка",
      "coord": [
        59.973118,
        30.306804
      ]
    },
    {
      "oid": 11930,
      "name": "АННУШКА",
      "class": "гостиница",
      "hotel_rooms": 86,
      "hotels_bads": 157,
      "address_manual": "Санкт-Петербург, Гапсальская ул., 2",
      "district": "Кировский",
      "phone": "+7(812)7033090;",
      "fax": "нет",
      "www": "http://www.annhotel.ru/",
      "email": "info@annhotel.ru",
      "description": "Бизнес-отель \"Аннушка\" - это отличное сочетание комфорта, цены и сервиса. Расположение на Гутуевском острове в шаговой доступности от Государственного университета морского и речного флота имени адмирала С.О. Макарова, ворот Морского порта, Адмиралтейских верфей, Балтийской таможни, РосМорПорта и др. без сомнений сделает его лучшим выбором для командировки.",
      "services": "87 прекрасно оборудованных просторных номеров,\r\n- бесплатный Wi-Fi,\r\n- отличное транспортное сообщение с центром Санкт-Петербурга, железнодорожными вокзалами и аэропортом Пулково (15 минут по ЗСД),\r\n- охраняемая парковка для легковых автомобилей,\r\n- удобная парковка для туристических автобусов,\r\n- ресторан,\r\n- конференц-возможности,\r\n- современный фитнес-зал,\r\n- сауна, бильярд, студия красоты,\r\n- туристические услуги: трансфер, визовая поддержка, организация экскурсий, сувенирный магазин,\r\n- безопасность,\r\n- заботливый квалифицированный англоговорящий персонал.",
      "coord": [
        59.912409,
        30.259759
      ]
    }
  ]
}
