{
  "count": 34,
  "next": "https://spb-classif.gate.petersburg.ru/api/v2/datasets/219/versions/latest/data/513/?page=2&per_page=10",
  "previous": null,
  "results": [
    {
      "number": 1,
      "name": "Конная Лахта",
      "location": "http://www.rgis.spb.ru/map/ShowPlace.aspx?id=47149",
      "district": "Приморский",
      "area": "798.80000000000000000000",
      "description": "Промзона \"Конная Лахта\" расположена на северном берегу Финского залива вблизи поселка Ольгино. Территория под промышленную застройку преимущественно не освоена. В силу удачного географического расположения считается одной из наиболее перспективных территорий для реализации проектов в области промышленного производства. Входит в список девяти зон первоочередного развития, утвержденных Правительством города.",
      "profiling_industry": "Пищевая промышленность\nДеревообрабатывающая промышленность\nПрочее",
      "main_businesses": "ЗАО «Бритиш Американ Тобакко-СПб», ППО СЕВЕРО-ЗАПАДНОЙ ТЭЦ, ООО ЗСК «Содружество»",
      "present_condition": "Документация не разрабатывается"
    },
    {
      "number": 2,
      "name": "Коломяги",
      "location": "http://www.rgis.spb.ru/map/ShowPlace.aspx?id=47151",
      "district": "Приморский",
      "area": "231.20000000000000000000",
      "description": "Промышленная зона \"Коломяги\" находится в относительной близости к центру города, при этом стоимость земли здесь значительно ниже. У района хорошая экологическая ситуация из-за близости крупного Новоорловского лесопарка и системы Суздальских озер. Из факторов, осложняющих развитие промышленного района, можно назвать непростую гидрогеологическую ситуацию, выраженный рельеф местности и историко-культурные факторы. Несмотря на это, район считается одной из перспективных территорий для градостроительно развития города.",
      "profiling_industry": "Машиностроение, производство электронного и оптического оборудования, объекты транспорта.",
      "main_businesses": "Завод \"Чупа-Чупс\" (кондитерская фабрика). ОАО \"Завод энергия\" (разработка и производство технических средств радиомониторинга стационарного, мобильного и морского базирования, производство средств радиотехнического контроля, разработка измерительных средств в интересах Метеорологической службы МО РФ). ЗАО \"ВАД\" (все виды работ по проведению инженерных изысканий, проектированию, строительству, реконструкции, капитальному и текущему ремонту автомобильных дорог всех технический категорий, а также летных полей аэродромов). \"Континентал Пласт\" (производство пластиковой упаковки различного объема, а также изготовление пластиковых деталей для мебели и автомобилей). ЗАО \"Метробетон\" (поставки бетонных смесей и железнобетонных изделий, а также автотранспортные услуги).",
      "present_condition": "Проект планировки и проект межевания утвержден Постановлением Правительства от 22.03.2011 № 339."
    },
    {
      "number": 3,
      "name": "Северо-Западная",
      "location": "http://www.rgis.spb.ru/map/ShowPlace.aspx?id=47150",
      "district": "Приморский",
      "area": "261.00000000000000000000",
      "description": "Промышленная зона входит в Муниципальное образование № 65 Приморского района. Находится западнее Серафимовского кладбища (вдоль Торфяной дороги), между Ситцевой улицей и Богатырским проспектом на севере и железной дорогой на юге. СЗД проходит по нежилой зоне по развязке с железнодорожной линией и Планерной улицей. Севернее и западнее от промзоны размещаются жилые кварталы, а на юго-западе идет новое жилищное строительство.",
      "profiling_industry": "Производство широкого профиля, складской объект.",
      "main_businesses": "Производственная база завода \"Ленполиграфмаш\", ООО «ЭКОЭНЕРДЖИГРУПП»,\nООО «ПЕРВАЯ МЕБЕЛЬНАЯ ФАБРИКА - АЛНО», ЗАО «САНКТ-ПЕТЕРБУРГСКАЯ ОБРАЗЦОВАЯ ТИПОГРАФИЯ»",
      "present_condition": "Документация по планировке территории производственной зоны \"Северо-Западная\" \nв Приморском районе Санкт-Петербурга утверждена постановлением Правительства Санкт-Петербурга от 09.02.2010 № 137.\nДокументация по планировке территории, ограниченной Мебельной ул., проектируемым проездом, проектируемым продолжением Стародеревенской ул., проектируемым проездом, Планерной ул., в Приморском районе Санкт-Петербурга, утвержденна постановлением Правительства Санкт-Петербурга от 11.11.2009 № 1294 (с изменениями от 26.11.2019). Документация по планировке территории, ограниченной Стародервенской ул., \nМебельной ул., Торфяной дорогой, Школьной ул., в Приморском районе Санкт-Петербурга утверждена постановлением Правительства Санкт-Петербурга от 17.03.2009 № 289. В 2021 году КППИТ подготовлены изменения в утвержденную документацию, в части территории, ограниченной ул. Оптиков, границей земельного участка Западного скоростного диаметра, Мебельной ул., Полиграфмашевскми проездом в Приморском районе Санкт-Петербурга. Планируемый срок утверждения - 2022 год."
    },
    {
      "number": 4,
      "name": "ОЭЗ площадка \"Нойдорф\"",
      "location": "http://www.rgis.spb.ru/map/ShowPlace.aspx?id=47152",
      "district": "Петродворцовый",
      "area": "18.99000000000000000000",
      "description": null,
      "profiling_industry": null,
      "main_businesses": "ЗАО \"Биокад\" (организация фармацевтического комплекса замкнутого цикла по разработке, производству и реализации препаратов из списка жизненно необходимых и важнейших лекарственных средств (ЖНВЛС) в рамках Стратегии развития фармацевтической прмышленности РФ на период до 2020 года). ООО \"Ракурс-инжиниринг\" (опытное производство программно-технических комплексов для объектов энергетической отрасли России). ООО \"НПП \"Лазерные системы\" (разработка уникальных комплексных решений с целью создания и реализации высокотехнологичных систем безопасности). ЗАО «Фарм-Холдинг» -проведение исследований в области пептидных препаратов, разработка и внедрение технологий производства новых лекарственных средств на их основе.",
      "present_condition": "Проект планировки и проект межевания утвержден Постановлением Правительства от 23.01.2007 № 63."
    },
    {
      "number": 5,
      "name": "ОЭЗ площадка \"Новоорловская\"",
      "location": "http://www.rgis.spb.ru/map/ShowPlace.aspx?id=47161",
      "district": "Приморский",
      "area": "166.33000000000000000000",
      "description": null,
      "profiling_industry": null,
      "main_businesses": "ООО \"Новартис Нева\" (разработка новых фармацевтических препаратов группы компаний \"Новартис\" и организация их производства на территории ОЭЗ в Санкт-Петербурге). ООО \"Вестком\" (разработка цифровых систем измерения и средств защиты информации в компьютерных сетях). ЗАО \"АТРИ\" (разработка и производство средств обработки и отображения информации, компонентов человеко-машинного интерыейса для АСУ, предназначенных для работы в жестких климатических условиях эксплуатации, с повышенной стойкостью к вибрации и ударам). Компания АО «ФАРМАСИНТЕЗ-НОРД» занимается разработкой и производствов противоопухолевых лекарственных препаратов. АО «ВЕРТЕКС» -  создание и внедрение инновационных продуктов за счет эффективного увеличения научно-исследовательских мощностей в области развития фармацевтического производства в Российской Федерации, ООО «НПП «ИНАППЕН» (разработка биотехнологических систем и производство продуктов промышленной энтомологии), АО «ИЦ «Буревестник» (разработка и выпуск оборудования для обогащения алмазосодержащих руд и сырья, аналитических приборов и систем), ООО «РУСХЛЕБ Исследования» (разработка и производство биотехнологических продуктов для пищевой отрасли)",
      "present_condition": "Проект планировки и проект межевания утвержден Постановлением Правительства \nот 17.07.2007 № 867.\nВ 2021 году КППИТ подготовлены изменения\nв утвержденную документацию, в части территории, ограниченной Парашютной ул., дорогой в Каменку, Суздальским шоссе, \nОрлово-Денисовским пр., \nул. Академика Харитона, ул. Летчика Паршина, \nв Приморском районе Санкт-Петербурга. Планируемый срок утвежрдения - 2022 год."
    },
    {
      "number": 6,
      "name": "Ломоносовская",
      "location": "http://www.rgis.spb.ru/map/ShowPlace.aspx?id=47154",
      "district": "Петродворцовый",
      "area": "199.00000000000000000000",
      "description": "Промышленная зона расположена на пересечении Астрономического и Гостилицкого шоссе, примыкает к КАД и развязке КАД - Гостилицкое шоссе. Территория имеет резерв под производственную застройку, однако свободные земельные участки обременены наличием в их границах городских лесов. Вопрос об исключении городских лесов из границ промзоны решен инвентаризационной комиссией при Правительстве РФ.",
      "profiling_industry": "Машиностроение, производство пищевых продуктов, транспортных средств, офисного оборудования и вычислительной техники.",
      "main_businesses": "ООО \"Федеральная трубная компания \"Ростр\" (предприятие по производству пластиковых труб и фасонных изделий для сетей водоснабжения, канализации, теплоснабжения, газоснабжения). Транспортная компания \"ПИТЕРАВТО\". Автомобильная газонаполнительная компрессорная станция (АГНКС) \"Газпром Газэнергосеть\".",
      "present_condition": "Документация не разработана"
    },
    {
      "number": 7,
      "name": "Военная Гавань, Янтарь",
      "location": "http://www.rgis.spb.ru/map/ShowPlace.aspx?id=47156",
      "district": "Петродворцовый",
      "area": "107.50000000000000000000",
      "description": "Территория расположена в Петродворцовом районе Санкт-Петербурга на южном берегу Финского залива в городе Ломоносове на территории военно-морской гавани (Ломоносовская гавань) и далее на восток по побережью. Зона относится к числу перспективных крупных транспортно-логистических узлов.",
      "profiling_industry": "Складские объекты, объекты водного внешнего транспорта.",
      "main_businesses": "ОАО \"Спасательные комплексы и акватехника - 28 Военный завод\". Научно-исследовательский институт (спасания и подводных технологий) ВУНЦ ВМФ \"Военно-морская академия\". Морская гидрометеорологическая станция II разряда.",
      "present_condition": "Документация не разработана"
    },
    {
      "number": 8,
      "name": "Марьино",
      "location": "http://www.rgis.spb.ru/map/ShowPlace.aspx?id=47153",
      "district": "Петродворцовый",
      "area": "264.00000000000000000000",
      "description": "Индустриальный парк \"Марьино\" - промышленная зона с централизованным управлением, ориентированная на размещение современных производственных предприятий. \"Марьино\" относится к территории петербургского автокластера. Первая очередь индустриального парка введена в сентябре 2013. К 2015 году на территории промзоны появится от 10 до 30 новых промышленных предприятий.",
      "profiling_industry": "Автомобильная промышленность, складской объект, производство машин и оборудования.",
      "main_businesses": "ООО \"Севзапканат\" (производство средств для подъема, перемещения и закрепления грузов).",
      "present_condition": "Проект планировки и проект межевания утвержден Постановлением Правительства от 07.12.2010 № 1671 (с изменениями от 21.05.2019)"
    },
    {
      "number": 9,
      "name": "Кронштадтская колония",
      "location": "http://www.rgis.spb.ru/map/ShowPlace.aspx?id=47158",
      "district": "Петродворцовый",
      "area": "63.70000000000000000000",
      "description": "Промзона расположена в Петродворцовом районе на участке пересечения КАД и Краснофлотского шоссе. Территория свободна от застройки, поскольку является городским резервом под промышленное строительство. Свободные земельные участки обременены наличием в их границах городских лесов, однако вопрос об исключении городских лесов из границ промзон решен инвентаризационной комиссией при Правительстве Санкт-Петербурга.",
      "profiling_industry": "Машиностроение, производство электронного и оптического оборудования, электрических машин и оборудования.",
      "main_businesses": "В непосредственной близости к восточной границе промзоны расположены объекты ОАО \"НИИ Мортеплотехники\".",
      "present_condition": "Документация не разрабатывается"
    },
    {
      "number": 10,
      "name": "Бронка",
      "location": "http://www.rgis.spb.ru/map/ShowPlace.aspx?id=47157",
      "district": "Петродворцовый",
      "area": "210.00000000000000000000",
      "description": "\"Бронка\" расположена на территории, примыкающей к строящейся дамбе комплекса защитных сооружений Санкт-Петербурга от наводнений (КЗС) и КАД, на южном побережье Финского залива (юго-западная часть Невской губы), входит в муниципальное образование \"город Ломоносов\". В рамках концепции развития перспективных районов (аванпортов) Большого порта Санкт-Петербург на территории промзоны реализуется проект Многофункционального морского перегрузочного комплекса \"Бронка\" (ММПК \"Бронка\"). Портовый комплекс стоимостью 59 млрд рублей предполагает строительство береговой инфраструктуры, семи причалов и тыловых терминалов, рассчитаных на обработку 1,9 млн TEUs (20-футовых контейнеров) в год и 260 тыс. единиц колесной техники. Первая очередь проекта предусматривает возведение подходного канала от Главного морского канала глубиной 8.7 м и длиной 5 км. Объем грузоперевалки составит 6 млн. тонн в год для первой очереди порта. Проект получил одобрение экспертного совета Минтранса России в вопрсах частно-государственного партнерства. Инвестор проекта - Компания \"Феникс\". Генподрядчик строительных работ - ЗАО \"Балстрой\". Строительство объектов береговой инфраструктуры ММПК \"Бронка\" началось в 2011 году. За это время завершены формирование внешнего периметра оградительных дамб для последующего намыва искусственных территорий, устройство свайного основания и забивка шпунта на причалах, подготовлена площадка под строительство зданий и сооружений ММПК \"Бронка\", начаты работы по строительству автомобильной развязки, связывающей порт и КАД. В 2013 году проект вступил в активную фазу строительства. В настоящее время ведутся работы по освоению территории, подрядчик приступил к сооружению причалов. Планируется, что порт \"Бронка\" начнет работать уже в 2015 году и будет иметь выход на кольцевую автодорогу, а далее - на федеральные трассы. В перспективе грузы станут уходить на железную дорогу, то есть грузовой поток пойдет в обход города.",
      "profiling_industry": "Складской объект, производство машин и оборудования, производство транспортных средств и оборудования, производство электрооборудования, электронного и оптического оборудования, предприятия информационно-телекоммуникационного сектора, объекты водного транспорта.",
      "main_businesses": "Прибрежный склад нефтепродуктов ООО \"Несте Санкт-Петербург\" (топливный терминал).",
      "present_condition": "Разработаны границы зон размещения объектов капитального строительства федерального значения ММПК \"Бронка\", которые согласованы Администрацией Санкт-Петербурга, Министерством регианального развития, Министерством экономического развития и утверждены приказом Министерства транспорта № 102 от 29 марта 2011 г."
    }
  ]
}
