{
  "count": 694,
  "next": "https://spb-classif.gate.petersburg.ru/api/v2/datasets/134/versions/latest/data/157/?page=2&per_page=10",
  "previous": null,
  "results": [
    {
      "oid": 5827,
      "obj_type": "Религиозные объекты",
      "name": "Армянская апостольская церковь",
      "short_name": "",
      "name_en": "St. Catherine's Church",
      "type": "",
      "address_manual": "Санкт-Петербург, Невский пр., д. 40-42",
      "phone": "+7(812)5704108; +7(812)7105061",
      "www": "armenian-church.org",
      "email": "arm_church_spb@mail.ru",
      "description": "",
      "description_en": "",
      "obj_history": "",
      "obj_history_en": "",
      "obj_hints": "",
      "work_time": "",
      "work_time_en": "",
      "coord": [
        59.957114107,
        30.303121017
      ]
    },
    {
      "oid": 5828,
      "obj_type": "Религиозные объекты",
      "name": "Церковь Святого Воскресения",
      "short_name": "",
      "name_en": "St. Ressurection Church",
      "type": "",
      "address_manual": "Санкт-Петербург, наб. реки Смоленки, д.29",
      "phone": "+7(812)3505301",
      "www": "armenian-church.org",
      "email": "",
      "description": "",
      "description_en": "",
      "obj_history": "",
      "obj_history_en": "",
      "obj_hints": "",
      "work_time": "",
      "work_time_en": "",
      "coord": [
        59.947875533,
        30.253260955
      ]
    },
    {
      "oid": 5829,
      "obj_type": "Религиозные объекты",
      "name": "Дацан Гунзэчойнэй",
      "short_name": "",
      "name_en": "Datsan Gunzechoinei",
      "type": "",
      "address_manual": "Санкт-Петербург, Приморский пр., д.91",
      "phone": "+7(981)7559605",
      "www": "dazan.spb.ru",
      "email": "",
      "description": "",
      "description_en": "",
      "obj_history": "",
      "obj_history_en": "",
      "obj_hints": "",
      "work_time": "",
      "work_time_en": "",
      "coord": [
        59.983492135,
        30.255973046
      ]
    },
    {
      "oid": 5830,
      "obj_type": "Религиозные объекты",
      "name": "Коломяжская мечеть",
      "short_name": "",
      "name_en": "Kolomyazhskaya Mosque",
      "type": "",
      "address_manual": "Санкт-Петербург, Репищева ул., д.1",
      "phone": "",
      "www": "",
      "email": "",
      "description": "",
      "description_en": "",
      "obj_history": "",
      "obj_history_en": "",
      "obj_hints": "",
      "work_time": "",
      "work_time_en": "",
      "coord": [
        60.017749506,
        30.281070461
      ]
    },
    {
      "oid": 5831,
      "obj_type": "Религиозные объекты",
      "name": "Соборная мечеть",
      "short_name": "",
      "name_en": "Saint Petersburg Mosque",
      "type": "",
      "address_manual": "Санкт-Петербург, Кронверкский пр., д.7",
      "phone": "+7(812)4984075",
      "www": "dum-spb.ru",
      "email": "dum-spb@mail.ru",
      "description": "",
      "description_en": "",
      "obj_history": "",
      "obj_history_en": "",
      "obj_hints": "",
      "work_time": "",
      "work_time_en": "",
      "coord": [
        59.955200609,
        30.32390419
      ]
    },
    {
      "oid": 5832,
      "obj_type": "Религиозные объекты",
      "name": "Большая хоральная синагога",
      "short_name": "",
      "name_en": "Grand Choral Synagogue",
      "type": "",
      "address_manual": "Санкт-Петербург, Лермонтовский пр., 2",
      "phone": "+7(812)7138186",
      "www": "www.jewishpetersburg.ru",
      "email": "sinagoga@list.ru",
      "description": "",
      "description_en": "",
      "obj_history": "",
      "obj_history_en": "",
      "obj_hints": "",
      "work_time": "",
      "work_time_en": "",
      "coord": [
        59.924738347,
        30.291701736
      ]
    },
    {
      "oid": 5833,
      "obj_type": "Религиозные объекты",
      "name": "Собор Успения Пресвятой Девы Марии",
      "short_name": "",
      "name_en": "St. Mary's Church",
      "type": "",
      "address_manual": "Санкт-Петербург, ул. 1-я Красноармейская, д.11",
      "phone": "+7(812)3164255",
      "www": "www.uspenie.spb.ru",
      "email": "",
      "description": "",
      "description_en": "",
      "obj_history": "",
      "obj_history_en": "",
      "obj_hints": "",
      "work_time": "",
      "work_time_en": "",
      "coord": [
        59.916493579,
        30.312087565
      ]
    },
    {
      "oid": 5834,
      "obj_type": "Религиозные объекты",
      "name": "Монастырский храм Святого Антония Чудотворца",
      "short_name": "",
      "name_en": "St. Anthony the Wonder Worker Monastery Cathedral",
      "type": "",
      "address_manual": "Санкт-Петербург, ул. 9-я Красноармейская, д.10",
      "phone": "",
      "www": "",
      "email": "",
      "description": "",
      "description_en": "",
      "obj_history": "",
      "obj_history_en": "",
      "obj_hints": "",
      "work_time": "",
      "work_time_en": "",
      "coord": [
        59.913421983,
        30.299903128
      ]
    },
    {
      "oid": 5835,
      "obj_type": "Религиозные объекты",
      "name": "Базилика Святой Екатерины Александрийской",
      "short_name": "",
      "name_en": "Catholic Church of St. Catherine",
      "type": "",
      "address_manual": "Санкт-Петербург, Невский пр., д.32-34",
      "phone": "+7(812)5715795",
      "www": "catherine.spb.ru",
      "email": "parish@catherine.spb.ru",
      "description": "",
      "description_en": "",
      "obj_history": "",
      "obj_history_en": "",
      "obj_hints": "",
      "work_time": "",
      "work_time_en": "",
      "coord": [
        59.935612312,
        30.329793558
      ]
    },
    {
      "oid": 5836,
      "obj_type": "Религиозные объекты",
      "name": "Церковь Лурдской Божией Матери",
      "short_name": "",
      "name_en": "Lourdskaya St. Mary Church",
      "type": "",
      "address_manual": "Санкт-Петербург, Ковенский пер., д.7",
      "phone": "+7(911)2095953; +7(812)2725002; +7(812)2720442",
      "www": "www.kovensky.ru",
      "email": "",
      "description": "",
      "description_en": "",
      "obj_history": "",
      "obj_history_en": "",
      "obj_hints": "",
      "work_time": "",
      "work_time_en": "",
      "coord": [
        59.937107794,
        30.356808256
      ]
    }
  ]
}
